Bayesian analysis of RESCUEicp trial
…
data_short

# A tibble: 32 × 4
   group_id  time ordinal_value count
   <fct>    <int>         <dbl> <int>
 1 Medical      6             1    92
 2 Medical      6             2     4
 3 Medical      6             3    27
 4 Medical      6             4    15
 5 Medical      6             5    19
 6 Medical      6             6    18
 7 Medical      6             7     6
 8 Medical      6             8     7
 9 Surgical     6             1    54
10 Surgical     6             2    17
# ℹ 22 more rows

We can make a long version of the data for use with our statistical model.

data_long <- data_short %>% 
  uncount(count) %>% 
  arrange(group_id, ordinal_value) 

data_long

# A tibble: 762 × 3
   group_id  time ordinal_value
   <fct>    <int>         <dbl>
 1 Medical      6             1
 2 Medical      6             1
 3 Medical      6             1
 4 Medical      6             1
 5 Medical      6             1
 6 Medical      6             1
 7 Medical      6             1
 8 Medical      6             1
 9 Medical      6             1
10 Medical      6             1
# ℹ 752 more rows
…
